Polling Starts...
Retreiving Room information Starts...
<myVRM><version>2.9315.3.3</version><client>07</client><commandname>GetRoomEWSDetails</commandname><command><GetRoomEWSDetails><RoomDetails><RoomId>14</RoomId><RoomEmail>FR-PAR-VR-S179@myvrm.com</RoomEmail><RoomDomain>myvrm</RoomDomain><RoomEWSURL></RoomEWSURL></RoomDetails><RoomDetails><RoomId>50</RoomId><RoomEmail>FR-PAR-VR-E704@myvrm.com</RoomEmail><RoomDomain>myvrm</RoomDomain><RoomEWSURL></RoomEWSURL></RoomDetails></GetRoomEWSDetails></command></myVRM>
Retreiving Room information Ends...
Filling up Exchange Details...
Loading Fetched appointments Starts...
Loading Fetched appointments Ends...
Total Rooms Count :2
Fetching Appointments for Room : FR-PAR-VR-S179@myvrm.com
Total Polled Appointments : 11
Into Resolving Room & User Information Start...
Into Resolving Room & User Information End...
Polled Meeting Name : Test Recurring
Into Resolving Room & User Information Start...
Into Resolving Room & User Information End...
Polled Meeting Name : Sep -2 
Into Resolving Room & User Information Start...
Into Resolving Room & User Information End...
Polled Meeting Name : Test Conference
Into Resolving Room & User Information Start...
Into Resolving Room & User Information End...
Polled Meeting Name : Test Recurring
Into Resolving Room & User Information Start...
Into Resolving Room & User Information End...
Polled Meeting Name : Recurring call 1
Into Resolving Room & User Information Start...
Into Resolving Room & User Information End...
Polled Meeting Name : Test Recurring
Into Resolving Room & User Information Start...
Into Resolving Room & User Information End...
Polled Meeting Name : Recurring call 1
Into Resolving Room & User Information Start...
Into Resolving Room & User Information End...
Polled Meeting Name : Test Recurring
Into Resolving Room & User Information Start...
Into Resolving Room & User Information End...
Polled Meeting Name : Recurring call 1
Into Resolving Room & User Information Start...
Into Resolving Room & User Information End...
Polled Meeting Name : Test Recurring
Into Resolving Room & User Information Start...
Into Resolving Room & User Information End...
Polled Meeting Name : Test Conference
Fetching Appointments for Room : FR-PAR-VR-E704@myvrm.com
Total Polled Appointments : 16
Into Resolving Room & User Information Start...
Into Resolving Room & User Information End...
Polled Meeting Name : Future call 1
Into Resolving Room & User Information Start...
Into Resolving Room & User Information End...
Polled Meeting Name : Sep 3
Into Resolving Room & User Information Start...
Into Resolving Room & User Information End...
Polled Meeting Name : test rec 2
Into Resolving Room & User Information Start...
Into Resolving Room & User Information End...
Polled Meeting Name : test rec 2
Into Resolving Room & User Information Start...
Into Resolving Room & User Information End...
Polled Meeting Name : test rec 2
Into Resolving Room & User Information Start...
Into Resolving Room & User Information End...
Polled Meeting Name : test rec 2
Into Resolving Room & User Information Start...
Into Resolving Room & User Information End...
Polled Meeting Name : Test call 3
Into Pushing appointments to DB Start...
Empty CalenderDelete Operation Start...
Empty CalenderDelete Operation End...
Title : Test Recurring
Insert or Update Appointment Title : Test Recurring
Conference Title is loaded
Conference Timezone is loaded
Conference Resource is loaded
Conference Party is loaded
Title : Sep -2 
Insert or Update Appointment Title : Sep -2 
Conference Title is loaded
Conference Timezone is loaded
Conference Resource is loaded
Conference Party is loaded
Title : Test Conference
Insert or Update Appointment Title : Test Conference
Conference Title is loaded
Conference Timezone is loaded
Conference Resource is loaded
Conference Party is loaded
Title : Test Recurring
Insert or Update Appointment Title : Test Recurring
Conference Title is loaded
Conference Timezone is loaded
Conference Resource is loaded
Conference Party is loaded
Title : Recurring call 1
Insert or Update Appointment Title : Recurring call 1
Conference Title is loaded
Conference Timezone is loaded
Conference Resource is loaded
Conference Party is loaded
Title : Test Recurring
Insert or Update Appointment Title : Test Recurring
Conference Title is loaded
Conference Timezone is loaded
Conference Resource is loaded
Conference Party is loaded
Title : Recurring call 1
Insert or Update Appointment Title : Recurring call 1
Conference Title is loaded
Conference Timezone is loaded
Conference Resource is loaded
Conference Party is loaded
Title : Test Recurring
Insert or Update Appointment Title : Test Recurring
Conference Title is loaded
Conference Timezone is loaded
Conference Resource is loaded
Conference Party is loaded
Title : Recurring call 1
Insert or Update Appointment Title : Recurring call 1
Conference Title is loaded
Conference Timezone is loaded
Conference Resource is loaded
Conference Party is loaded
Title : Test Recurring
Insert or Update Appointment Title : Test Recurring
Conference Title is loaded
Conference Timezone is loaded
Conference Resource is loaded
Conference Party is loaded
Title : Test Conference
Insert or Update Appointment Title : Test Conference
Conference Title is loaded
Conference Timezone is loaded
Conference Resource is loaded
Conference Party is loaded
Title : Sep 3
Insert or Update Appointment Title : Sep 3
Conference Title is loaded
Conference Timezone is loaded
Conference Resource is loaded
Conference Party is loaded
Title : test rec 2
Insert or Update Appointment Title : test rec 2
Conference Title is loaded
Conference Timezone is loaded
Conference Resource is loaded
Conference Party is loaded
Title : test rec 2
Insert or Update Appointment Title : test rec 2
Conference Title is loaded
Conference Timezone is loaded
Conference Resource is loaded
Conference Party is loaded
Title : test rec 2
Insert or Update Appointment Title : test rec 2
Conference Title is loaded
Conference Timezone is loaded
Conference Resource is loaded
Conference Party is loaded
Title : test rec 2
Insert or Update Appointment Title : test rec 2
Conference Title is loaded
Conference Timezone is loaded
Conference Resource is loaded
Conference Party is loaded
Title : Test call 3
Insert or Update Appointment Title : Test call 3
Conference Title is loaded
Conference Timezone is loaded
Conference Resource is loaded
Conference Party is loaded
Into Pushing appointments to DB End...
Polling Ends...
Polling Starts...
Retreiving Room information Starts...
<myVRM><version>2.9315.3.3</version><client>07</client><commandname>GetRoomEWSDetails</commandname><command><GetRoomEWSDetails><RoomDetails><RoomId>14</RoomId><RoomEmail>FR-PAR-VR-S179@myvrm.com</RoomEmail><RoomDomain>myvrm</RoomDomain><RoomEWSURL></RoomEWSURL></RoomDetails><RoomDetails><RoomId>50</RoomId><RoomEmail>FR-PAR-VR-E704@myvrm.com</RoomEmail><RoomDomain>myvrm</RoomDomain><RoomEWSURL></RoomEWSURL></RoomDetails></GetRoomEWSDetails></command></myVRM>
Retreiving Room information Ends...
Filling up Exchange Details...
Loading Fetched appointments Starts...
Loading Fetched appointments Ends...
Total Rooms Count :2
Fetching Appointments for Room : FR-PAR-VR-S179@myvrm.com
Total Polled Appointments : 11
Into Resolving Room & User Information Start...
Into Resolving Room & User Information End...
Polled Meeting Name : Test Recurring
Into Resolving Room & User Information Start...
Into Resolving Room & User Information End...
Polled Meeting Name : Sep -2 
Into Resolving Room & User Information Start...
Into Resolving Room & User Information End...
Polled Meeting Name : Test Conference
Into Resolving Room & User Information Start...
Into Resolving Room & User Information End...
Polled Meeting Name : Test Recurring
Into Resolving Room & User Information Start...
Into Resolving Room & User Information End...
Polled Meeting Name : Recurring call 1
Into Resolving Room & User Information Start...
Into Resolving Room & User Information End...
Polled Meeting Name : Test Recurring
Into Resolving Room & User Information Start...
Into Resolving Room & User Information End...
Polled Meeting Name : Recurring call 1
Into Resolving Room & User Information Start...
Into Resolving Room & User Information End...
Polled Meeting Name : Test Recurring
Into Resolving Room & User Information Start...
Into Resolving Room & User Information End...
Polled Meeting Name : Recurring call 1
Into Resolving Room & User Information Start...
Into Resolving Room & User Information End...
Polled Meeting Name : Test Recurring
Into Resolving Room & User Information Start...
Into Resolving Room & User Information End...
Polled Meeting Name : Test Conference
Fetching Appointments for Room : FR-PAR-VR-E704@myvrm.com
Total Polled Appointments : 16
Into Resolving Room & User Information Start...
Into Resolving Room & User Information End...
Polled Meeting Name : Future call 1
Into Resolving Room & User Information Start...
Into Resolving Room & User Information End...
Polled Meeting Name : Sep 3
Into Resolving Room & User Information Start...
Into Resolving Room & User Information End...
Polled Meeting Name : test rec 2
Into Resolving Room & User Information Start...
Into Resolving Room & User Information End...
Polled Meeting Name : test rec 2
Into Resolving Room & User Information Start...
Into Resolving Room & User Information End...
Polled Meeting Name : test rec 2
Into Resolving Room & User Information Start...
Into Resolving Room & User Information End...
Polled Meeting Name : test rec 2
Into Resolving Room & User Information Start...
Into Resolving Room & User Information End...
Polled Meeting Name : Test call 3
Into Pushing appointments to DB Start...
Empty CalenderDelete Operation Start...
Empty CalenderDelete Operation End...
Into Pushing appointments to DB End...
Polling Ends...
Polling Starts...
Retreiving Room information Starts...
<myVRM><version>2.9315.3.3</version><client>07</client><commandname>GetRoomEWSDetails</commandname><command><GetRoomEWSDetails><RoomDetails><RoomId>14</RoomId><RoomEmail>FR-PAR-VR-S179@myvrm.com</RoomEmail><RoomDomain>myvrm</RoomDomain><RoomEWSURL></RoomEWSURL></RoomDetails><RoomDetails><RoomId>50</RoomId><RoomEmail>FR-PAR-VR-E704@myvrm.com</RoomEmail><RoomDomain>myvrm</RoomDomain><RoomEWSURL></RoomEWSURL></RoomDetails></GetRoomEWSDetails></command></myVRM>
Retreiving Room information Ends...
Filling up Exchange Details...
Loading Fetched appointments Starts...
Loading Fetched appointments Ends...
Total Rooms Count :2
Fetching Appointments for Room : FR-PAR-VR-S179@myvrm.com
Total Polled Appointments : 11
Into Resolving Room & User Information Start...
Into Resolving Room & User Information End...
Polled Meeting Name : Test Recurring
Into Resolving Room & User Information Start...
Into Resolving Room & User Information End...
Polled Meeting Name : Sep -2 
Into Resolving Room & User Information Start...
Into Resolving Room & User Information End...
Polled Meeting Name : Test Conference
Into Resolving Room & User Information Start...
Into Resolving Room & User Information End...
Polled Meeting Name : Test Recurring
Into Resolving Room & User Information Start...
Into Resolving Room & User Information End...
Polled Meeting Name : Recurring call 1
Into Resolving Room & User Information Start...
Into Resolving Room & User Information End...
Polled Meeting Name : Test Recurring
Into Resolving Room & User Information Start...
Into Resolving Room & User Information End...
Polled Meeting Name : Recurring call 1
Into Resolving Room & User Information Start...
Into Resolving Room & User Information End...
Polled Meeting Name : Test Recurring
Into Resolving Room & User Information Start...
Into Resolving Room & User Information End...
Polled Meeting Name : Recurring call 1
Into Resolving Room & User Information Start...
Into Resolving Room & User Information End...
Polled Meeting Name : Test Recurring
Into Resolving Room & User Information Start...
Into Resolving Room & User Information End...
Polled Meeting Name : Test Conference
Fetching Appointments for Room : FR-PAR-VR-E704@myvrm.com
Total Polled Appointments : 16
Into Resolving Room & User Information Start...
Into Resolving Room & User Information End...
Polled Meeting Name : Future call 1
Into Resolving Room & User Information Start...
Into Resolving Room & User Information End...
Polled Meeting Name : Sep 3
Into Resolving Room & User Information Start...
Into Resolving Room & User Information End...
Polled Meeting Name : test rec 2
Into Resolving Room & User Information Start...
Into Resolving Room & User Information End...
Polled Meeting Name : test rec 2
Into Resolving Room & User Information Start...
Into Resolving Room & User Information End...
Polled Meeting Name : test rec 2
Into Resolving Room & User Information Start...
Into Resolving Room & User Information End...
Polled Meeting Name : test rec 2
Into Resolving Room & User Information Start...
Into Resolving Room & User Information End...
Polled Meeting Name : Test call 3
Into Pushing appointments to DB Start...
Empty CalenderDelete Operation Start...
Empty CalenderDelete Operation End...
Into Pushing appointments to DB End...
Polling Ends...
Polling Starts...
Retreiving Room information Starts...
<myVRM><version>2.9315.3.3</version><client>07</client><commandname>GetRoomEWSDetails</commandname><command><GetRoomEWSDetails><RoomDetails><RoomId>14</RoomId><RoomEmail>FR-PAR-VR-S179@myvrm.com</RoomEmail><RoomDomain>myvrm</RoomDomain><RoomEWSURL></RoomEWSURL></RoomDetails><RoomDetails><RoomId>50</RoomId><RoomEmail>FR-PAR-VR-E704@myvrm.com</RoomEmail><RoomDomain>myvrm</RoomDomain><RoomEWSURL></RoomEWSURL></RoomDetails></GetRoomEWSDetails></command></myVRM>
Retreiving Room information Ends...
Filling up Exchange Details...
Loading Fetched appointments Starts...
Loading Fetched appointments Ends...
Total Rooms Count :2
Fetching Appointments for Room : FR-PAR-VR-S179@myvrm.com
Total Polled Appointments : 11
Into Resolving Room & User Information Start...
Into Resolving Room & User Information End...
Polled Meeting Name : Test Recurring
Into Resolving Room & User Information Start...
Into Resolving Room & User Information End...
Polled Meeting Name : Sep -2 
Into Resolving Room & User Information Start...
Into Resolving Room & User Information End...
Polled Meeting Name : Test Conference
Into Resolving Room & User Information Start...
Into Resolving Room & User Information End...
Polled Meeting Name : Test Recurring
Into Resolving Room & User Information Start...
Into Resolving Room & User Information End...
Polled Meeting Name : Recurring call 1
Into Resolving Room & User Information Start...
Into Resolving Room & User Information End...
Polled Meeting Name : Test Recurring
Into Resolving Room & User Information Start...
Into Resolving Room & User Information End...
Polled Meeting Name : Recurring call 1
Into Resolving Room & User Information Start...
Into Resolving Room & User Information End...
Polled Meeting Name : Test Recurring
Into Resolving Room & User Information Start...
Into Resolving Room & User Information End...
Polled Meeting Name : Recurring call 1
Into Resolving Room & User Information Start...
Into Resolving Room & User Information End...
Polled Meeting Name : Test Recurring
Into Resolving Room & User Information Start...
Into Resolving Room & User Information End...
Polled Meeting Name : Test Conference
Fetching Appointments for Room : FR-PAR-VR-E704@myvrm.com
Total Polled Appointments : 16
Into Resolving Room & User Information Start...
Into Resolving Room & User Information End...
Polled Meeting Name : Future call 1
Into Resolving Room & User Information Start...
Into Resolving Room & User Information End...
Polled Meeting Name : Sep 3
Into Resolving Room & User Information Start...
Into Resolving Room & User Information End...
Polled Meeting Name : test rec 2
Into Resolving Room & User Information Start...
Into Resolving Room & User Information End...
Polled Meeting Name : test rec 2
Into Resolving Room & User Information Start...
Into Resolving Room & User Information End...
Polled Meeting Name : test rec 2
Into Resolving Room & User Information Start...
Into Resolving Room & User Information End...
Polled Meeting Name : test rec 2
Into Resolving Room & User Information Start...
Into Resolving Room & User Information End...
Polled Meeting Name : Test call 3
Into Pushing appointments to DB Start...
Empty CalenderDelete Operation Start...
Empty CalenderDelete Operation End...
Into Pushing appointments to DB End...
Polling Ends...
Polling Starts...
Retreiving Room information Starts...
<myVRM><version>2.9315.3.3</version><client>07</client><commandname>GetRoomEWSDetails</commandname><command><GetRoomEWSDetails><RoomDetails><RoomId>14</RoomId><RoomEmail>FR-PAR-VR-S179@myvrm.com</RoomEmail><RoomDomain>myvrm</RoomDomain><RoomEWSURL></RoomEWSURL></RoomDetails><RoomDetails><RoomId>50</RoomId><RoomEmail>FR-PAR-VR-E704@myvrm.com</RoomEmail><RoomDomain>myvrm</RoomDomain><RoomEWSURL></RoomEWSURL></RoomDetails></GetRoomEWSDetails></command></myVRM>
Retreiving Room information Ends...
Filling up Exchange Details...
Loading Fetched appointments Starts...
Loading Fetched appointments Ends...
Total Rooms Count :2
Fetching Appointments for Room : FR-PAR-VR-S179@myvrm.com
Total Polled Appointments : 11
Into Resolving Room & User Information Start...
Into Resolving Room & User Information End...
Polled Meeting Name : Test Recurring
Into Resolving Room & User Information Start...
Into Resolving Room & User Information End...
Polled Meeting Name : Sep -2 
Into Resolving Room & User Information Start...
Into Resolving Room & User Information End...
Polled Meeting Name : Test Conference
Into Resolving Room & User Information Start...
Into Resolving Room & User Information End...
Polled Meeting Name : Test Recurring
Into Resolving Room & User Information Start...
Into Resolving Room & User Information End...
Polled Meeting Name : Recurring call 1
Into Resolving Room & User Information Start...
Into Resolving Room & User Information End...
Polled Meeting Name : Test Recurring
Into Resolving Room & User Information Start...
Into Resolving Room & User Information End...
Polled Meeting Name : Recurring call 1
Into Resolving Room & User Information Start...
Into Resolving Room & User Information End...
Polled Meeting Name : Test Recurring
Into Resolving Room & User Information Start...
Into Resolving Room & User Information End...
Polled Meeting Name : Recurring call 1
Into Resolving Room & User Information Start...
Into Resolving Room & User Information End...
Polled Meeting Name : Test Recurring
Into Resolving Room & User Information Start...
Into Resolving Room & User Information End...
Polled Meeting Name : Test Conference
Fetching Appointments for Room : FR-PAR-VR-E704@myvrm.com
Total Polled Appointments : 16
Into Resolving Room & User Information Start...
Into Resolving Room & User Information End...
Polled Meeting Name : Future call 1
Into Resolving Room & User Information Start...
Into Resolving Room & User Information End...
Polled Meeting Name : Sep 3
Into Resolving Room & User Information Start...
Into Resolving Room & User Information End...
Polled Meeting Name : test rec 2
Into Resolving Room & User Information Start...
Into Resolving Room & User Information End...
Polled Meeting Name : test rec 2
Into Resolving Room & User Information Start...
Into Resolving Room & User Information End...
Polled Meeting Name : test rec 2
Into Resolving Room & User Information Start...
Into Resolving Room & User Information End...
Polled Meeting Name : test rec 2
Into Resolving Room & User Information Start...
Into Resolving Room & User Information End...
Polled Meeting Name : Test call 3
Into Pushing appointments to DB Start...
Empty CalenderDelete Operation Start...
Empty CalenderDelete Operation End...
Into Pushing appointments to DB End...
Polling Ends...
Polling Starts...
Retreiving Room information Starts...
<myVRM><version>2.9315.3.3</version><client>07</client><commandname>GetRoomEWSDetails</commandname><command><GetRoomEWSDetails><RoomDetails><RoomId>14</RoomId><RoomEmail>FR-PAR-VR-S179@myvrm.com</RoomEmail><RoomDomain>myvrm</RoomDomain><RoomEWSURL></RoomEWSURL></RoomDetails><RoomDetails><RoomId>50</RoomId><RoomEmail>FR-PAR-VR-E704@myvrm.com</RoomEmail><RoomDomain>myvrm</RoomDomain><RoomEWSURL></RoomEWSURL></RoomDetails></GetRoomEWSDetails></command></myVRM>
Retreiving Room information Ends...
Filling up Exchange Details...
Loading Fetched appointments Starts...
Loading Fetched appointments Ends...
Total Rooms Count :2
Fetching Appointments for Room : FR-PAR-VR-S179@myvrm.com
Total Polled Appointments : 11
Into Resolving Room & User Information Start...
Into Resolving Room & User Information End...
Polled Meeting Name : Test Recurring
Into Resolving Room & User Information Start...
Into Resolving Room & User Information End...
Polled Meeting Name : Sep -2 
Into Resolving Room & User Information Start...
Into Resolving Room & User Information End...
Polled Meeting Name : Test Conference
Into Resolving Room & User Information Start...
Into Resolving Room & User Information End...
Polled Meeting Name : Test Recurring
Into Resolving Room & User Information Start...
Into Resolving Room & User Information End...
Polled Meeting Name : Recurring call 1
Into Resolving Room & User Information Start...
Into Resolving Room & User Information End...
Polled Meeting Name : Test Recurring
Into Resolving Room & User Information Start...
Into Resolving Room & User Information End...
Polled Meeting Name : Recurring call 1
Into Resolving Room & User Information Start...
Into Resolving Room & User Information End...
Polled Meeting Name : Test Recurring
Into Resolving Room & User Information Start...
Into Resolving Room & User Information End...
Polled Meeting Name : Recurring call 1
Into Resolving Room & User Information Start...
Into Resolving Room & User Information End...
Polled Meeting Name : Test Recurring
Into Resolving Room & User Information Start...
Into Resolving Room & User Information End...
Polled Meeting Name : Test Conference
Fetching Appointments for Room : FR-PAR-VR-E704@myvrm.com
Total Polled Appointments : 16
Into Resolving Room & User Information Start...
Into Resolving Room & User Information End...
Polled Meeting Name : Future call 1
Into Resolving Room & User Information Start...
Into Resolving Room & User Information End...
Polled Meeting Name : Sep 3
Into Resolving Room & User Information Start...
Into Resolving Room & User Information End...
Polled Meeting Name : test rec 2
Into Resolving Room & User Information Start...
Into Resolving Room & User Information End...
Polled Meeting Name : test rec 2
Into Resolving Room & User Information Start...
Into Resolving Room & User Information End...
Polled Meeting Name : test rec 2
Into Resolving Room & User Information Start...
Into Resolving Room & User Information End...
Polled Meeting Name : test rec 2
Into Resolving Room & User Information Start...
Into Resolving Room & User Information End...
Polled Meeting Name : Test call 3
Into Pushing appointments to DB Start...
Empty CalenderDelete Operation Start...
Empty CalenderDelete Operation End...
Into Pushing appointments to DB End...
Polling Ends...
